{
  "configVersion": 2,
  "packages": [
    {
      "name": "another_flushbar",
      "rootUri": "file:///C:/Users/Acer/AppData/Local/Pub/Cache/hosted/pub.dartlang.org/another_flushbar-1.10.24",
      "packageUri": "lib/",
      "languageVersion": "2.12"
    },
    {
      "name": "async",
      "rootUri": "file:///C:/Users/Acer/AppData/Local/Pub/Cache/hosted/pub.dartlang.org/async-2.8.1",
      "packageUri": "lib/",
      "languageVersion": "2.12"
    },
    {
      "name": "boolean_selector",
      "rootUri": "file:///C:/Users/Acer/AppData/Local/Pub/Cache/hosted/pub.dartlang.org/boolean_selector-2.1.0",
      "packageUri": "lib/",
      "languageVersion": "2.12"
    },
    {
      "name": "characters",
      "rootUri": "file:///C:/Users/Acer/AppData/Local/Pub/Cache/hosted/pub.dartlang.org/characters-1.1.0",
      "packageUri": "lib/",
      "languageVersion": "2.12"
    },
    {
      "name": "charcode",
      "rootUri": "file:///C:/Users/Acer/AppData/Local/Pub/Cache/hosted/pub.dartlang.org/charcode-1.3.1",
      "packageUri": "lib/",
      "languageVersion": "2.12"
    },
    {
      "name": "clock",
      "rootUri": "file:///C:/Users/Acer/AppData/Local/Pub/Cache/hosted/pub.dartlang.org/clock-1.1.0",
      "packageUri": "lib/",
      "languageVersion": "2.12"
    },
    {
      "name": "collection",
      "rootUri": "file:///C:/Users/Acer/AppData/Local/Pub/Cache/hosted/pub.dartlang.org/collection-1.15.0",
      "packageUri": "lib/",
      "languageVersion": "2.12"
    },
    {
      "name": "convert",
      "rootUri": "file:///C:/Users/Acer/AppData/Local/Pub/Cache/hosted/pub.dartlang.org/convert-2.1.1",
      "packageUri": "lib/",
      "languageVersion": "1.17"
    },
    {
      "name": "cupertino_icons",
      "rootUri": "file:///C:/Users/Acer/AppData/Local/Pub/Cache/hosted/pub.dartlang.org/cupertino_icons-1.0.3",
      "packageUri": "lib/",
      "languageVersion": "2.12"
    },
    {
      "name": "dio",
      "rootUri": "file:///C:/Users/Acer/AppData/Local/Pub/Cache/hosted/pub.dartlang.org/dio-3.0.10",
      "packageUri": "lib/",
      "languageVersion": "2.4"
    },
    {
      "name": "fake_async",
      "rootUri": "file:///C:/Users/Acer/AppData/Local/Pub/Cache/hosted/pub.dartlang.org/fake_async-1.2.0",
      "packageUri": "lib/",
      "languageVersion": "2.12"
    },
    {
      "name": "flutter",
      "rootUri": "file:///C:/Android/flutter/packages/flutter",
      "packageUri": "lib/",
      "languageVersion": "2.12"
    },
    {
      "name": "flutter_colorpicker",
      "rootUri": "file:///C:/Users/Acer/AppData/Local/Pub/Cache/hosted/pub.dartlang.org/flutter_colorpicker-0.5.0",
      "packageUri": "lib/",
      "languageVersion": "2.12"
    },
    {
      "name": "flutter_datetime_picker",
      "rootUri": "file:///C:/Users/Acer/AppData/Local/Pub/Cache/hosted/pub.dartlang.org/flutter_datetime_picker-1.5.1",
      "packageUri": "lib/",
      "languageVersion": "2.12"
    },
    {
      "name": "flutter_form_builder",
      "rootUri": "file:///C:/Users/Acer/AppData/Local/Pub/Cache/hosted/pub.dartlang.org/flutter_form_builder-7.0.0",
      "packageUri": "lib/",
      "languageVersion": "2.12"
    },
    {
      "name": "flutter_keyboard_visibility_platform_interface",
      "rootUri": "file:///C:/Users/Acer/AppData/Local/Pub/Cache/hosted/pub.dartlang.org/flutter_keyboard_visibility_platform_interface-2.0.0",
      "packageUri": "lib/",
      "languageVersion": "2.12"
    },
    {
      "name": "flutter_keyboard_visibility_web",
      "rootUri": "file:///C:/Users/Acer/AppData/Local/Pub/Cache/hosted/pub.dartlang.org/flutter_keyboard_visibility_web-2.0.0",
      "packageUri": "lib/",
      "languageVersion": "2.12"
    },
    {
      "name": "flutter_svg",
      "rootUri": "file:///C:/Users/Acer/AppData/Local/Pub/Cache/hosted/pub.dartlang.org/flutter_svg-0.18.1",
      "packageUri": "lib/",
      "languageVersion": "2.2"
    },
    {
      "name": "flutter_test",
      "rootUri": "file:///C:/Android/flutter/packages/flutter_test",
      "packageUri": "lib/",
      "languageVersion": "2.12"
    },
    {
      "name": "flutter_web_plugins",
      "rootUri": "file:///C:/Android/flutter/packages/flutter_web_plugins",
      "packageUri": "lib/",
      "languageVersion": "2.12"
    },
    {
      "name": "font_awesome_flutter",
      "rootUri": "file:///C:/Users/Acer/AppData/Local/Pub/Cache/hosted/pub.dartlang.org/font_awesome_flutter-8.12.0",
      "packageUri": "lib/",
      "languageVersion": "2.0"
    },
    {
      "name": "http",
      "rootUri": "file:///C:/Users/Acer/AppData/Local/Pub/Cache/hosted/pub.dartlang.org/http-0.12.2",
      "packageUri": "lib/",
      "languageVersion": "2.4"
    },
    {
      "name": "http_parser",
      "rootUri": "file:///C:/Users/Acer/AppData/Local/Pub/Cache/hosted/pub.dartlang.org/http_parser-3.1.4",
      "packageUri": "lib/",
      "languageVersion": "2.3"
    },
    {
      "name": "intl",
      "rootUri": "file:///C:/Users/Acer/AppData/Local/Pub/Cache/hosted/pub.dartlang.org/intl-0.17.0",
      "packageUri": "lib/",
      "languageVersion": "2.12"
    },
    {
      "name": "js",
      "rootUri": "file:///C:/Users/Acer/AppData/Local/Pub/Cache/hosted/pub.dartlang.org/js-0.6.3",
      "packageUri": "lib/",
      "languageVersion": "2.12"
    },
    {
      "name": "matcher",
      "rootUri": "file:///C:/Users/Acer/AppData/Local/Pub/Cache/hosted/pub.dartlang.org/matcher-0.12.10",
      "packageUri": "lib/",
      "languageVersion": "2.12"
    },
    {
      "name": "meta",
      "rootUri": "file:///C:/Users/Acer/AppData/Local/Pub/Cache/hosted/pub.dartlang.org/meta-1.7.0",
      "packageUri": "lib/",
      "languageVersion": "2.12"
    },
    {
      "name": "path",
      "rootUri": "file:///C:/Users/Acer/AppData/Local/Pub/Cache/hosted/pub.dartlang.org/path-1.8.0",
      "packageUri": "lib/",
      "languageVersion": "2.12"
    },
    {
      "name": "path_drawing",
      "rootUri": "file:///C:/Users/Acer/AppData/Local/Pub/Cache/hosted/pub.dartlang.org/path_drawing-0.4.1+1",
      "packageUri": "lib/",
      "languageVersion": "1.19"
    },
    {
      "name": "path_parsing",
      "rootUri": "file:///C:/Users/Acer/AppData/Local/Pub/Cache/hosted/pub.dartlang.org/path_parsing-0.1.4",
      "packageUri": "lib/",
      "languageVersion": "1.19"
    },
    {
      "name": "pedantic",
      "rootUri": "file:///C:/Users/Acer/AppData/Local/Pub/Cache/hosted/pub.dartlang.org/pedantic-1.11.1",
      "packageUri": "lib/",
      "languageVersion": "2.12"
    },
    {
      "name": "petitparser",
      "rootUri": "file:///C:/Users/Acer/AppData/Local/Pub/Cache/hosted/pub.dartlang.org/petitparser-3.1.0",
      "packageUri": "lib/",
      "languageVersion": "2.7"
    },
    {
      "name": "photo_view",
      "rootUri": "file:///C:/Users/Acer/AppData/Local/Pub/Cache/hosted/pub.dartlang.org/photo_view-0.12.0",
      "packageUri": "lib/",
      "languageVersion": "2.12"
    },
    {
      "name": "plugin_platform_interface",
      "rootUri": "file:///C:/Users/Acer/AppData/Local/Pub/Cache/hosted/pub.dartlang.org/plugin_platform_interface-2.0.2",
      "packageUri": "lib/",
      "languageVersion": "2.12"
    },
    {
      "name": "sky_engine",
      "rootUri": "file:///C:/Android/flutter/bin/cache/pkg/sky_engine",
      "packageUri": "lib/",
      "languageVersion": "2.12"
    },
    {
      "name": "source_span",
      "rootUri": "file:///C:/Users/Acer/AppData/Local/Pub/Cache/hosted/pub.dartlang.org/source_span-1.8.1",
      "packageUri": "lib/",
      "languageVersion": "2.12"
    },
    {
      "name": "stack_trace",
      "rootUri": "file:///C:/Users/Acer/AppData/Local/Pub/Cache/hosted/pub.dartlang.org/stack_trace-1.10.0",
      "packageUri": "lib/",
      "languageVersion": "2.12"
    },
    {
      "name": "stream_channel",
      "rootUri": "file:///C:/Users/Acer/AppData/Local/Pub/Cache/hosted/pub.dartlang.org/stream_channel-2.1.0",
      "packageUri": "lib/",
      "languageVersion": "2.12"
    },
    {
      "name": "string_scanner",
      "rootUri": "file:///C:/Users/Acer/AppData/Local/Pub/Cache/hosted/pub.dartlang.org/string_scanner-1.1.0",
      "packageUri": "lib/",
      "languageVersion": "2.12"
    },
    {
      "name": "term_glyph",
      "rootUri": "file:///C:/Users/Acer/AppData/Local/Pub/Cache/hosted/pub.dartlang.org/term_glyph-1.2.0",
      "packageUri": "lib/",
      "languageVersion": "2.12"
    },
    {
      "name": "test_api",
      "rootUri": "file:///C:/Users/Acer/AppData/Local/Pub/Cache/hosted/pub.dartlang.org/test_api-0.4.2",
      "packageUri": "lib/",
      "languageVersion": "2.12"
    },
    {
      "name": "typed_data",
      "rootUri": "file:///C:/Users/Acer/AppData/Local/Pub/Cache/hosted/pub.dartlang.org/typed_data-1.3.0",
      "packageUri": "lib/",
      "languageVersion": "2.12"
    },
    {
      "name": "vector_math",
      "rootUri": "file:///C:/Users/Acer/AppData/Local/Pub/Cache/hosted/pub.dartlang.org/vector_math-2.1.0",
      "packageUri": "lib/",
      "languageVersion": "2.12"
    },
    {
      "name": "xml",
      "rootUri": "file:///C:/Users/Acer/AppData/Local/Pub/Cache/hosted/pub.dartlang.org/xml-4.5.1",
      "packageUri": "lib/",
      "languageVersion": "2.7"
    },
    {
      "name": "vigenesia",
      "rootUri": "../",
      "packageUri": "lib/",
      "languageVersion": "2.12"
    }
  ],
  "generated": "2021-11-14T13:21:16.386251Z",
  "generator": "pub",
  "generatorVersion": "2.14.4"
}
